  ___                 _                
 | __|___ __ _  _ ___| |__ _ _ __ _ __ 
 | _|(_-</ _| || / -_) / _` | '_ \ '_ \
 |___/__/\__|\_,_\___|_\__,_| .__/ .__/
                            |_|  |_|  
                            
                            